[{"id":1,"fecha":"10/18/2017","importe":69.42,"latitud":3.3217785,"longitud":101.4679893},
{"id":2,"fecha":"4/14/2017","importe":14.32,"latitud":1.1706966,"longitud":33.7098569},
{"id":3,"fecha":"6/18/2017","importe":99.5,"latitud":8.508983,"longitud":125.969667},
{"id":4,"fecha":"10/9/2017","importe":87.37,"latitud":"10.90354","longitud":"123.0597"},
{"id":5,"fecha":"22/30/2017","importe":34.13,"latitud":12.9029999,"longitud":123.2470016},
{"id":6,"fecha":"10/19/2017","importe":23.32,"latitud":14.5072887,"longitud":121.0064151},
{"id":7,"fecha":"2/27/2017","importe":94.72,"latitud":45.4476447,"longitud":9.1855974},
{"id":8,"fecha":"1/11/2017","importe":4.33,"latitud":58.1628402,"longitud":16.3083468},
{"id":9,"fecha":"8/31/2017","importe":61.66,"latitud":54.0498,"longitud":21.1458001},
{"id":10,"fecha":"4/7/2017","importe":51.68,"latitud":44.335532,"longitud":85.625121},
{"id":11,"fecha":"12/26/2017","importe":20.6,"latitud":13.4935504,"longitud":39.465738},
{"id":12,"fecha":"12/23/2017","importe":76.42,"latitud":41.3807001,"longitud":-8.7336232},
{"id":13,"fecha":"7/27/2017","importe":66.27,"latitud":37.039991,"longitud":115.667208},
{"id":14,"fecha":"5/12/2017","importe":83.86,"latitud":60.3428116,"longitud":30.4896784},
{"id":15,"fecha":"6/18/2017","importe":85.25,"latitud":"-8.5316","longitud":"121.26"},
{"id":16,"fecha":"1/11/2017","importe":10.17,"latitud":32.699635,"longitud":35.303546},
{"id":17,"fecha":"9/29/2017","importe":34.9,"latitud":26.4486465,"longitud":68.3132182},
{"id":18,"fecha":"8/1/2017","importe":81.16,"latitud":44.351935,"longitud":-87.8445954},
{"id":19,"fecha":"9/5/2017","importe":40.41,"latitud":47.5341107,"longitud":21.6379372},
{"id":20,"fecha":"12/9/2017","importe":91.67,"latitud":47.6022755,"longitud":6.2194418},
{"id":21,"fecha":"1/29/2017","importe":35.25,"latitud":55.600738,"longitud":37.5321289},
{"id":22,"fecha":"3/27/2017","importe":54.38,"latitud":56.8881364,"longitud":65.8835448},
{"id":23,"fecha":"7/21/2017","importe":60.54,"latitud":6.1898099,"longitud":-73.57585},
{"id":24,"fecha":"2/10/2017","importe":59.08,"latitud":-6.2624908,"longitud":106.1713267},
{"id":25,"fecha":"8/8/2017","importe":45.71,"latitud":-12.182745,"longitud":-39.2167652},
{"id":26,"fecha":"11/14/2017","importe":86.16,"latitud":-34.6730937,"longitud":-58.5501558},
{"id":27,"fecha":"12/22/2017","importe":38.48,"latitud":47.2495437,"longitud":107.5408308},
{"id":28,"fecha":"3/11/2017","importe":39.26,"latitud":50.8579559,"longitud":32.3974889},
{"id":29,"fecha":"5/19/2017","importe":53.3,"latitud":-6.1785289,"longitud":106.6315413},
{"id":30,"fecha":"2/10/2017","importe":13.84,"latitud":12.16219,"longitud":-68.2713254},
{"id":31,"fecha":"6/23/2017","importe":84.14,"latitud":30.07225,"longitud":122.003581},
{"id":32,"fecha":"7/25/2017","importe":69.61,"latitud":53.3857827,"longitud":14.4620917},
{"id":33,"fecha":"6/23/2017","importe":89.93,"latitud":-6.403006,"longitud":107.454927},
{"id":34,"fecha":"4/19/2017","importe":2.38,"latitud":17.9611269,"longitud":-76.8893907},
{"id":35,"fecha":"7/6/2017","importe":86.11,"latitud":33.347316,"longitud":120.16366},
{"id":36,"fecha":"12/16/2017","importe":49.56,"latitud":14.5024732,"longitud":120.9921722},
{"id":37,"fecha":"11/20/2017","importe":38.92,"latitud":16.8991985,"longitud":121.7075195},
{"id":38,"fecha":"11/20/2017","importe":16.74,"latitud":38.80549,"longitud":-9.3277081},
{"id":39,"fecha":"12/19/2017","importe":90.15,"latitud":38.0409665,"longitud":140.1253371},
{"id":40,"fecha":"11/26/2017","importe":90.81,"latitud":-7.4250762,"longitud":108.2822389},
{"id":41,"fecha":"7/13/2017","importe":51.95,"latitud":-7.7194317,"longitud":109.0007407},
{"id":42,"fecha":"11/11/2017","importe":76.6,"latitud":-6.0329665,"longitud":26.9263671},
{"id":43,"fecha":"12/15/2017","importe":45.34,"latitud":26.893368,"longitud":112.572018},
{"id":44,"fecha":"9/16/2017","importe":14.71,"latitud":22.845641,"longitud":89.5403279},
{"id":45,"fecha":"1/14/2017","importe":62.48,"latitud":55.4738346,"longitud":13.0125224},
{"id":46,"fecha":"4/8/2017","importe":60.52,"latitud":58.999782,"longitud":55.8855974},
{"id":47,"fecha":"10/19/2017","importe":73.19,"latitud":-6.9684303,"longitud":106.8060388},
{"id":48,"fecha":"1/18/2017","importe":33.33,"latitud":5.093026,"longitud":119.808662},
{"id":49,"fecha":"3/3/2017","importe":27.81,"latitud":-8.1469688,"longitud":112.2890705},
{"id":50,"fecha":"11/20/2017","importe":61.98,"latitud":-8.6841275,"longitud":121.0507098},
{"id":51,"fecha":"5/26/2017","importe":68.72,"latitud":-16.115743,"longitud":-49.3247147},
{"id":52,"fecha":"5/7/2017","importe":42.07,"latitud":-17.8907823,"longitud":-51.7176899},
{"id":53,"fecha":"11/17/2017","importe":75.95,"latitud":-6.1671806,"longitud":106.8340622},
{"id":54,"fecha":"5/3/2017","importe":54.04,"latitud":30.921373,"longitud":118.784812},
{"id":55,"fecha":"4/11/2017","importe":36.38,"latitud":60.0702076,"longitud":15.9334948},
{"id":56,"fecha":"9/22/2017","importe":78.23,"latitud":37.0388867,"longitud":9.6647636},
{"id":57,"fecha":"12/23/2017","importe":67.06,"latitud":29.285314,"longitud":110.338222},
{"id":58,"fecha":"6/20/2017","importe":78.76,"latitud":36.0858893,"longitud":36.5040446},
{"id":59,"fecha":"3/25/2017","importe":2.97,"latitud":"53.9865","longitud":"27.7982"},
{"id":60,"fecha":"2/12/2017","importe":47.71,"latitud":24.2629574,"longitud":97.2383178},
{"id":61,"fecha":"3/20/2017","importe":56.48,"latitud":-27.4955748,"longitud":-48.6553685},
{"id":62,"fecha":"4/6/2017","importe":78.78,"latitud":27.948308,"longitud":109.599191},
{"id":63,"fecha":"10/5/2017","importe":93.0,"latitud":25.386379,"longitud":114.922922},
{"id":64,"fecha":"3/20/2017","importe":82.04,"latitud":52.8566588,"longitud":15.677579},
{"id":65,"fecha":"5/21/2017","importe":26.89,"latitud":6.3336659,"longitud":1.5281253},
{"id":66,"fecha":"6/8/2017","importe":79.97,"latitud":49.0386312,"longitud":16.5942897},
{"id":67,"fecha":"8/10/2017","importe":6.84,"latitud":18.0842472,"longitud":-88.5710266},
{"id":68,"fecha":"7/18/2017","importe":79.28,"latitud":51.2828145,"longitud":-114.0371938},
{"id":69,"fecha":"2/19/2017","importe":74.26,"latitud":14.641514,"longitud":-61.0512822},
{"id":70,"fecha":"4/30/2017","importe":61.84,"latitud":52.28375,"longitud":16.7007399},
{"id":71,"fecha":"2/16/2017","importe":81.01,"latitud":6.7866898,"longitud":6.9490955},
{"id":72,"fecha":"3/22/2017","importe":85.93,"latitud":56.9651439,"longitud":26.3110469},
{"id":73,"fecha":"10/3/2017","importe":22.93,"latitud":30.674362,"longitud":107.803911},
{"id":74,"fecha":"2/24/2017","importe":19.32,"latitud":-0.4660955,"longitud":100.3984148},
{"id":75,"fecha":"9/19/2017","importe":77.86,"latitud":47.0834949,"longitud":51.8784102},
{"id":76,"fecha":"7/31/2017","importe":99.57,"latitud":44.634519,"longitud":41.9328118},
{"id":77,"fecha":"7/8/2017","importe":52.89,"latitud":35.408609,"longitud":117.146885},
{"id":78,"fecha":"1/30/2017","importe":86.75,"latitud":49.1571976,"longitud":-123.1152602},
{"id":79,"fecha":"5/30/2017","importe":9.46,"latitud":32.192361,"longitud":35.159475},
{"id":80,"fecha":"7/18/2017","importe":12.31,"latitud":60.6755434,"longitud":17.14035},
{"id":81,"fecha":"9/12/2017","importe":46.86,"latitud":"-8.44983","longitud":"124.05402"},
{"id":82,"fecha":"9/21/2017","importe":67.22,"latitud":"13.8013","longitud":"32.4078"},
{"id":83,"fecha":"1/12/2017","importe":28.74,"latitud":14.6388542,"longitud":121.0041022},
{"id":84,"fecha":"9/5/2017","importe":52.18,"latitud":6.394353,"longitud":-75.256581},
{"id":85,"fecha":"12/26/2017","importe":44.32,"latitud":45.3710038,"longitud":-73.5312291},
{"id":86,"fecha":"1/30/2017","importe":2.57,"latitud":"15.63981","longitud":"43.55633"},
{"id":87,"fecha":"6/4/2017","importe":9.56,"latitud":51.3879616,"longitud":34.9737843},
{"id":88,"fecha":"4/5/2017","importe":33.71,"latitud":38.4968282,"longitud":-9.0375864},
{"id":89,"fecha":"8/7/2017","importe":15.99,"latitud":47.082485,"longitud":39.3745033},
{"id":90,"fecha":"5/26/2017","importe":36.71,"latitud":49.5902725,"longitud":111.9805058},
{"id":91,"fecha":"4/17/2017","importe":64.58,"latitud":38.4298138,"longitud":22.6668104},
{"id":92,"fecha":"7/18/2017","importe":97.68,"latitud":29.5530941,"longitud":118.9353968},
{"id":93,"fecha":"6/27/2017","importe":55.8,"latitud":37.9656089,"longitud":23.5677089},
{"id":94,"fecha":"1/16/2017","importe":78.41,"latitud":14.5795923,"longitud":121.05079},
{"id":95,"fecha":"9/29/2017","importe":16.32,"latitud":39.042852,"longitud":117.318781},
{"id":96,"fecha":"5/14/2017","importe":77.69,"latitud":-11.8073632,"longitud":-39.3809152},
{"id":97,"fecha":"2/28/2017","importe":35.81,"latitud":48.3728929,"longitud":-4.212759},
{"id":98,"fecha":"2/5/2017","importe":58.24,"latitud":47.0163969,"longitud":-68.1430029},
{"id":99,"fecha":"5/9/2017","importe":12.32,"latitud":29.201587,"longitud":111.755127},
{"id":100,"fecha":"5/31/2017","importe":48.75,"latitud":39.664138,"longitud":-8.5173008}]
