[{"id":1,"email":"mmeynell0@nature.com","pass":"UWbtLDn","nombre":"Margarethe","estado":null},
{"id":2,"email":"tleatt1@shareasale.com","pass":"8Qj4fM2Z7","nombre":"Terencio","estado":null},
{"id":3,"email":"ataber2@com.com","pass":"jBOZ3S","nombre":"Alys","estado":null},
{"id":4,"email":"wlemarquis3@yahoo.co.jp","pass":"WviBC3oEg1","nombre":"Warde","estado":null},
{"id":5,"email":"lumfrey4@macromedia.com","pass":"wGll6qIL","nombre":"Lewes","estado":null},
{"id":6,"email":"cluckes5@icq.com","pass":"BEuNP1WcNch","nombre":"Correy","estado":null},
{"id":7,"email":"lbutterfill6@theatlantic.com","pass":"CsbIpkIh7B","nombre":"Lissy","estado":null},
{"id":8,"email":"phawthorn7@admin.ch","pass":"85EapE5KDn","nombre":"Perri","estado":null},
{"id":9,"email":"apurser8@altervista.org","pass":"WeNAa4","nombre":"Antonio","estado":null},
{"id":10,"email":"kpinare9@uol.com.br","pass":"QrjGs6Xe","nombre":"Karyn","estado":null},
{"id":11,"email":"tmclugaisha@sun.com","pass":"yW5ln1o61zm","nombre":"Tommi","estado":null},
{"id":12,"email":"wantoniewskib@salon.com","pass":"nGjAvPd","nombre":"Way","estado":null},
{"id":13,"email":"cfranklingc@mozilla.org","pass":"EdzErPuq","nombre":"Corine","estado":null},
{"id":14,"email":"mbrianced@xinhuanet.com","pass":"nKHsbAVWgg","nombre":"Magdaia","estado":null},
{"id":15,"email":"rvertigane@cnn.com","pass":"C5CJLmfyq3","nombre":"Roberto","estado":null},
{"id":16,"email":"cpfertnerf@blinklist.com","pass":"i75WYdHYjN","nombre":"Cletis","estado":null},
{"id":17,"email":"ppilmoorg@opensource.org","pass":"jHb7XkQsgX","nombre":"Penny","estado":null},
{"id":18,"email":"dbedfordh@amazon.co.uk","pass":"2TeU6AM","nombre":"Delly","estado":null},
{"id":19,"email":"gviccaryi@amazon.co.jp","pass":"l9ceFSaaS","nombre":"Gualterio","estado":null},
{"id":20,"email":"atourniej@omniture.com","pass":"7CRPnsMx","nombre":"Arther","estado":null},
{"id":21,"email":"jbastickk@twitpic.com","pass":"79NDW7","nombre":"Jamil","estado":null},
{"id":22,"email":"ashoppeel@shop-pro.jp","pass":"pb0duGe6sS","nombre":"Artemas","estado":null},
{"id":23,"email":"dtesyrom@seesaa.net","pass":"2ck5Yqw8n","nombre":"Daisi","estado":null},
{"id":24,"email":"tbruneln@tamu.edu","pass":"NU7o8hRXQrj","nombre":"Tybi","estado":null},
{"id":25,"email":"mboldrao@comcast.net","pass":"ZE6onZ","nombre":"Mario","estado":null},
{"id":26,"email":"bthomazetp@shop-pro.jp","pass":"mv3D9XEtFD1j","nombre":"Barde","estado":null},
{"id":27,"email":"hthickingq@nhs.uk","pass":"4hMnOodh","nombre":"Huntlee","estado":null},
{"id":28,"email":"gfayr@techcrunch.com","pass":"6pxTYQEl","nombre":"Godiva","estado":null},
{"id":29,"email":"cbettiss@qq.com","pass":"aCc0g1ZAmEJe","nombre":"Car","estado":null},
{"id":30,"email":"ttukesbyt@un.org","pass":"fBi3Y49","nombre":"Tirrell","estado":null},
{"id":31,"email":"hweatherhoggu@guardian.co.uk","pass":"yLJlg6bax9r","nombre":"Hobie","estado":null},
{"id":32,"email":"ajewisv@liveinternet.ru","pass":"S3THh6oeAOG","nombre":"Amalia","estado":null},
{"id":33,"email":"rdomenyw@usnews.com","pass":"ifrWzMyG","nombre":"Rene","estado":null},
{"id":34,"email":"jyakubovicsx@umn.edu","pass":"wxdYiIh6Y","nombre":"Jennette","estado":null},
{"id":35,"email":"larrandaley@sciencedirect.com","pass":"zP49ECO7ytj","nombre":"Layton","estado":null},
{"id":36,"email":"tharderz@163.com","pass":"y3eC3Yo2cM","nombre":"Tedra","estado":null},
{"id":37,"email":"npumfrey10@aboutads.info","pass":"4ueszNVhzu1c","nombre":"Norah","estado":null},
{"id":38,"email":"kpreene11@dot.gov","pass":"6aYRweaKcgL","nombre":"Kessia","estado":null},
{"id":39,"email":"qferrier12@toplist.cz","pass":"nHLPwpc","nombre":"Quent","estado":null},
{"id":40,"email":"jrhodus13@nationalgeographic.com","pass":"heivb69Gn","nombre":"Juanita","estado":null},
{"id":41,"email":"tsurmanwells14@springer.com","pass":"S5ESf4sc","nombre":"Thorny","estado":null},
{"id":42,"email":"bspera15@technorati.com","pass":"V7yNnAENGs","nombre":"Brendon","estado":null},
{"id":43,"email":"fdellenbroker16@themeforest.net","pass":"Qng9xN","nombre":"Fidole","estado":null},
{"id":44,"email":"mworters17@ocn.ne.jp","pass":"eU3fTmr","nombre":"Marco","estado":null},
{"id":45,"email":"ahorick18@bbb.org","pass":"8R6qRi","nombre":"Arman","estado":null},
{"id":46,"email":"ymix19@usda.gov","pass":"2cFvXlUuwNhW","nombre":"Yves","estado":null},
{"id":47,"email":"tlardeux1a@cbslocal.com","pass":"GXzcgHzPDL8f","nombre":"Torey","estado":null},
{"id":48,"email":"cdafydd1b@bloglines.com","pass":"ADjayPj","nombre":"Cherey","estado":null},
{"id":49,"email":"dgarnham1c@mayoclinic.com","pass":"txhtnNXff1x","nombre":"Doll","estado":null},
{"id":50,"email":"gmerlin1d@wordpress.org","pass":"q6AIBuaTpiMg","nombre":"Gianna","estado":null},
{"id":51,"email":"bcrowley1e@fema.gov","pass":"gXLD8J0IriVj","nombre":"Binni","estado":null},
{"id":52,"email":"dgouldbourn1f@utexas.edu","pass":"X5kS5k","nombre":"Dominick","estado":null},
{"id":53,"email":"hwile1g@homestead.com","pass":"rW6Sv9","nombre":"Hershel","estado":null},
{"id":54,"email":"lcamerana1h@sitemeter.com","pass":"jDs8t3O0","nombre":"Lorrin","estado":null},
{"id":55,"email":"wlawley1i@google.nl","pass":"WXUkyGsuhA","nombre":"Wyndham","estado":null},
{"id":56,"email":"bjesse1j@creativecommons.org","pass":"yaw7S2q","nombre":"Barbee","estado":null},
{"id":57,"email":"mbirden1k@icq.com","pass":"fp2jWdq8fFLC","nombre":"Morganne","estado":null},
{"id":58,"email":"pjaqueme1l@webmd.com","pass":"CLuaBCVIcUaj","nombre":"Pooh","estado":null},
{"id":59,"email":"cmacro1m@yahoo.co.jp","pass":"JMKrtmuj","nombre":"Cindie","estado":null},
{"id":60,"email":"jwadlow1n@twitter.com","pass":"VVe02iJ","nombre":"Janette","estado":null},
{"id":61,"email":"mmowle1o@51.la","pass":"mjNMBVfK","nombre":"Melba","estado":null},
{"id":62,"email":"lfullegar1p@xinhuanet.com","pass":"zgDkrbJXygq","nombre":"Lorelei","estado":null},
{"id":63,"email":"nkibbel1q@canalblog.com","pass":"nwD8cza","nombre":"Nevin","estado":null},
{"id":64,"email":"tdoyley1r@over-blog.com","pass":"eycbebJWOw","nombre":"Tatiana","estado":null},
{"id":65,"email":"tmacqueen1s@nsw.gov.au","pass":"Wj11Owt4","nombre":"Tobi","estado":null},
{"id":66,"email":"rsinott1t@deviantart.com","pass":"RvP3w5","nombre":"Rhonda","estado":null},
{"id":67,"email":"bvedenyapin1u@seesaa.net","pass":"Du3Zb4pHFe","nombre":"Bryanty","estado":null},
{"id":68,"email":"aseakin1v@oakley.com","pass":"pzYgyW","nombre":"Aurore","estado":null},
{"id":69,"email":"jchedzoy1w@cnn.com","pass":"wkrPdl8SB","nombre":"Jacquie","estado":null},
{"id":70,"email":"cbeckham1x@wikispaces.com","pass":"sj84uK","nombre":"Cirstoforo","estado":null},
{"id":71,"email":"oechallier1y@surveymonkey.com","pass":"5OD64DzoKPj","nombre":"Oswald","estado":null},
{"id":72,"email":"fmannagh1z@dailymotion.com","pass":"kOCy6Wp","nombre":"Far","estado":null},
{"id":73,"email":"dbolstridge20@timesonline.co.uk","pass":"TOO1yrw6o","nombre":"Darline","estado":null},
{"id":74,"email":"jgerwood21@ucoz.com","pass":"893Yfox","nombre":"Jenine","estado":null},
{"id":75,"email":"eeasen22@fema.gov","pass":"akbZA8n","nombre":"Emilie","estado":null},
{"id":76,"email":"lastling23@exblog.jp","pass":"xszr0i2l","nombre":"Lanny","estado":null},
{"id":77,"email":"cbollin24@vk.com","pass":"X7U4vHp6EMPx","nombre":"Caralie","estado":null},
{"id":78,"email":"lconboy25@tumblr.com","pass":"moMMbmuha","nombre":"Leelah","estado":null},
{"id":79,"email":"piddy26@independent.co.uk","pass":"mTHQLcBg","nombre":"Patricia","estado":null},
{"id":80,"email":"tshimony27@vistaprint.com","pass":"VQyEgZoHVz","nombre":"Teriann","estado":null}]
